{
  "project_info": {
    "project_number": "417910122779",
    "firebase_url": "https://belajar-islam-256d6.firebaseio.com",
    "project_id": "belajar-islam-256d6",
    "storage_bucket": "belajar-islam-256d6.appspot.com"
  },
  "client": [
    {
      "client_info": {
        "mobilesdk_app_id": "1:417910122779:android:b7866258e68bc671",
        "android_client_info": {
          "package_name": "id.anomstudio.belajarislam"
        }
      },
      "oauth_client": [
        {
          "client_id": "417910122779-60j66b1msjtunvjah7q18on9dvrgiof0.apps.googleusercontent.com",
          "client_type": 1,
          "android_info": {
            "package_name": "id.anomstudio.belajarislam",
            "certificate_hash": "2c2b8b5db64e7db6c774757229e7bbbd18513498"
          }
        },
        {
          "client_id": "417910122779-u7m3o2d2r38sj8lhrnvdv5tpb181j2f9.apps.googleusercontent.com",
          "client_type": 3
        }
      ],
      "api_key": [
        {
          "current_key": "AIzaSyCl8kiL8I4N57RbPYrbHbPSf-0R-vYtv28"
        }
      ],
      "services": {
        "analytics_service": {
          "status": 1
        },
        "appinvite_service": {
          "status": 2,
          "other_platform_oauth_client": [
            {
              "client_id": "417910122779-u7m3o2d2r38sj8lhrnvdv5tpb181j2f9.apps.googleusercontent.com",
              "client_type": 3
            }
          ]
        },
        "ads_service": {
          "status": 2
        }
      }
    }
  ],
  "configuration_version": "1"
}